3 LANGKAH KILAT MAHIR ANALISIS DATA
…
Sebenarnya ada banyak grafik jenis lainnya seperti histogram, grafik garis (line chart), grafik sebar (scatter plot), dan grafik lainnya. Pembahasan di bagian ini akan difokuskan pada grafik batang saja.

Cukup penjelasannya, coba langsung Anda inisiasi paket ggplot2 menggunakan fungsi library().

# Inisiasi paket ggplot
library(ggplot2)

Setiap Anda ingin menggunakan paket R yang cukup spesifik, Anda harus menginisasi paket tersebut di awal. Hal ini dilakukan agar Anda bisa mengakses seluruh fungsi yang ada di paket tersebut.

Anda akan menggunakan data built in dari ggplot2, yakni mpg. Untuk melihat data mpg, ketik mpg di CONSOLE dan tekan Enter.

mpg

## # A tibble: 234 x 11
##    manufacturer model displ  year   cyl trans drv     cty   hwy fl    cla…
##    <chr>        <chr> <dbl> <int> <int> <chr> <chr> <int> <int> <chr> <ch>
##  1 audi         a4      1.8  1999     4 auto… f        18    29 p     com…
##  2 audi         a4      1.8  1999     4 manu… f        21    29 p     com…
##  3 audi         a4      2    2008     4 manu… f        20    31 p     com…
##  4 audi         a4      2    2008     4 auto… f        21    30 p     com…
##  5 audi         a4      2.8  1999     6 auto… f        16    26 p     com…
##  6 audi         a4      2.8  1999     6 manu… f        18    26 p     com…
##  7 audi         a4      3.1  2008     6 auto… f        18    27 p     com…
##  8 audi         a4 q…   1.8  1999     4 manu… 4        18    26 p     com…
##  9 audi         a4 q…   1.8  1999     4 auto… 4        16    25 p     com…
## 10 audi         a4 q…   2    2008     4 manu… 4        20    28 p     com…
## # ... with 224 more rows
…
